^C:\USERS\NATAL\SOURCE\REPOS\QUEUECLIENT\QUEUECLIENT\DEBUG\.NETFRAMEWORK,VERSION=V4.6.1.ASSEMBLYATTRIBUTES.OBJ|C:\USERS\NATAL\SOURCE\REPOS\QUEUECLIENT\QUEUECLIENT\DEBUG\ADMIN.OBJ|C:\USERS\NATAL\SOURCE\REPOS\QUEUECLIENT\QUEUECLIENT\DEBUG\CUSTOMER.OBJ|C:\USERS\NATAL\SOURCE\REPOS\QUEUECLIENT\QUEUECLIENT\DEBUG\LOGIN.OBJ|C:\USERS\NATAL\SOURCE\REPOS\QUEUECLIENT\QUEUECLIENT\DEBUG\REGISTRATION.OBJ
/OUT:"C:\USERS\NATAL\SOURCE\REPOS\QUEUECLIENT\DEBUG\QUEUECLIENT.EXE" /INCREMENTAL /NOLOGO /ASSEMBLYRESOURCE:DEBUG\QUEUECLIENT.ADMIN.RESOURCES /ASSEMBLYRESOURCE:DEBUG\QUEUECLIENT.CUSTOMER.RESOURCES /ASSEMBLYRESOURCE:DEBUG\QUEUECLIENT.LOGIN.RESOURCES /ASSEMBLYRESOURCE:DEBUG\QUEUECLIENT.REGISTRATION.RESOURCES /MANIFEST /MANIFESTUAC:"level='asInvoker' uiAccess='false'" /manifest:embed /DEBUG:FULL /PDB:"C:\USERS\NATAL\SOURCE\REPOS\QUEUECLIENT\DEBUG\QUEUECLIENT.PDB" /ASSEMBLYDEBUG /SUBSYSTEM:WINDOWS /TLBID:1 /ENTRY:"main" /DYNAMICBASE /FIXED:NO /NXCOMPAT /MACHINE:X86 DEBUG\ADMIN.OBJ
DEBUG\CUSTOMER.OBJ
DEBUG\LOGIN.OBJ
DEBUG\REGISTRATION.OBJ
"DEBUG\.NETFRAMEWORK,VERSION=V4.6.1.ASSEMBLYATTRIBUTES.OBJ"
^D:\ПРОЕКТ2\КЛІЄНТ\QUEUECLIENT\DEBUG\.NETFRAMEWORK,VERSION=V4.6.1.ASSEMBLYATTRIBUTES.OBJ|D:\ПРОЕКТ2\КЛІЄНТ\QUEUECLIENT\DEBUG\ADMIN.OBJ|D:\ПРОЕКТ2\КЛІЄНТ\QUEUECLIENT\DEBUG\CUSTOMER.OBJ|D:\ПРОЕКТ2\КЛІЄНТ\QUEUECLIENT\DEBUG\LOGIN.OBJ|D:\ПРОЕКТ2\КЛІЄНТ\QUEUECLIENT\DEBUG\REGISTRATION.OBJ
/OUT:"D:\ПРОЕКТ2\КЛІЄНТ\DEBUG\QUEUECLIENT.EXE" /INCREMENTAL /NOLOGO /ASSEMBLYRESOURCE:DEBUG\QUEUECLIENT.ADMIN.RESOURCES /ASSEMBLYRESOURCE:DEBUG\QUEUECLIENT.CUSTOMER.RESOURCES /ASSEMBLYRESOURCE:DEBUG\QUEUECLIENT.LOGIN.RESOURCES /ASSEMBLYRESOURCE:DEBUG\QUEUECLIENT.REGISTRATION.RESOURCES /MANIFEST /MANIFESTUAC:"level='asInvoker' uiAccess='false'" /manifest:embed /DEBUG:FULL /PDB:"D:\ПРОЕКТ2\КЛІЄНТ\DEBUG\QUEUECLIENT.PDB" /ASSEMBLYDEBUG /SUBSYSTEM:WINDOWS /TLBID:1 /ENTRY:"main" /DYNAMICBASE /FIXED:NO /NXCOMPAT /MACHINE:X86 DEBUG\ADMIN.OBJ
DEBUG\CUSTOMER.OBJ
DEBUG\LOGIN.OBJ
DEBUG\REGISTRATION.OBJ
"DEBUG\.NETFRAMEWORK,VERSION=V4.6.1.ASSEMBLYATTRIBUTES.OBJ"
